"","naics_description","cnt","sum"
"1","COMMERCIAL AND INSTITUTIONAL BUILDING CONSTRUCTION",51,2410625856.445
"2","COMPUTER SYSTEMS DESIGN SERVICES",116,2225134991.7
"3","OTHER SUPPORT ACTIVITIES FOR AIR TRANSPORTATION",6,2017393775.78
"4","RESEARCH AND DEVELOPMENT IN THE PHYSICAL, ENGINEERING, AND LIFE SCIENCES",1,1257073361.86
"5","OTHER COMPUTER RELATED SERVICES",1640,848016189.988333
"6","SEARCH, DETECTION, NAVIGATION, GUIDANCE, AERONAUTICAL, AND NAUTICAL SYSTEM AND INSTRUMENT MANUFACTURING",62,740876919.416666
"7","ADMINISTRATIVE MANAGEMENT AND GENERAL MANAGEMENT CONSULTING SERVICES",113,634177636.05
"8","EMPLOYMENT PLACEMENT AGENCIES",3,622347751
"9","APPAREL ACCESSORIES AND OTHER APPAREL MANUFACTURING",60,608006873.79
"10","COMPUTER FACILITIES MANAGEMENT SERVICES",104,558403604.94
"11","OTHER ELECTRONIC AND PRECISION EQUIPMENT REPAIR AND MAINTENANCE",36,502934303.615
"12","AIRCRAFT ENGINE AND ENGINE PARTS MANUFACTURING",1,472555351
"13","AIRCRAFT MANUFACTURING",6,370039430.625
"14","ENGINEERING SERVICES",64,350898554.366842
"15","INVESTIGATION SERVICES",23,308927174.695
"16","SECURITY GUARDS AND PATROL SERVICES",16,300791466.91
"17","FACILITIES SUPPORT SERVICES",168,294662053.135
"18","DATA PROCESSING, HOSTING, AND RELATED SERVICES",76,279597953.075
"19","HUMAN RESOURCES CONSULTING SERVICES (2007), HUMAN RESOURCES AND EXECUTIVE SEARCH CONSULTING SERVICES (2002)",28,257766877.42
"20","SOFTWARE PUBLISHERS",118,257699369.64
"21","RADIO AND TELEVISION BROADCASTING AND WIRELESS COMMUNICATIONS EQUIPMENT MANUFACTURING",108,240942035.25
"22","CELLULAR AND OTHER WIRELESS TELECOMMUNICATIONS",4,2.4e+08
"23","SHIP BUILDING AND REPAIRING",2,224685160.1
"24","ALL OTHER PROFESSIONAL, SCIENTIFIC, AND TECHNICAL SERVICES",33,208158644.05
"25","OTHER HEAVY AND CIVIL ENGINEERING CONSTRUCTION",14,202928309.735
"26","OTHER APPAREL ACCESSORIES AND OTHER APPAREL MANUFACTURING",150,198744385.77
"27","OFFICES OF PHYSICIANS (EXCEPT MENTAL HEALTH SPECIALISTS)",18,193413684.446667
"28","OTHER MANAGEMENT CONSULTING SERVICES",22,192120999.59
"29","USED HOUSEHOLD AND OFFICE GOODS MOVING",9,167507155.61
"30","CUSTOM COMPUTER PROGRAMMING SERVICES",179,164593524.565
"31","OFFICE MACHINERY AND EQUIPMENT RENTAL AND LEASING",34,154265479.09
"32","IRRADIATION APPARATUS MANUFACTURING",24,150875137.545
"33","OTHER ACCOUNTING SERVICES",13,124877869.94
"34","GENERAL WAREHOUSING AND STORAGE",23,124001440.25
"35","OFFICE ADMINISTRATIVE SERVICES",16,102078786.905
"36","OTHER ELECTRONIC COMPONENT MANUFACTURING",7,102029546.08
"37","JANITORIAL SERVICES",123,98450982.955
"38","WHOLESALE TRADE AGENTS AND BROKERS",4,93862964.15
"39","RESEARCH AND DEVELOPMENT IN THE PHYSICAL, ENGINEERING, AND LIFE SCIENCES (EXCEPT BIOTECHNOLOGY)",13,75945363.605
"40","ADVERTISING AGENCIES",41,75535348.72
"41","TEMPORARY HELP SERVICES",17,68994116.435
"42","FLIGHT TRAINING",8,68426996.1
"43","ELECTRICAL CONTRACTORS AND OTHER WIRING INSTALLATION CONTRACTORS",51,62713162.02
"44","BOAT BUILDING",2,54859046.72
"45","SMALL ARMS, ORDNANCE, AND ORDNANCE ACCESSORIES MANUFACTURING",26,52607250.535
"46","COMPUTER AND SOFTWARE STORES",107,40013391.67
"47","SURGICAL APPLIANCE AND SUPPLIES MANUFACTURING",46,39352202.0883333
"48","OFFICES OF CERTIFIED PUBLIC ACCOUNTANTS",2,30558303.67
"49","SMALL ARMS AMMUNITION MANUFACTURING",25,27018662.825
"50","ANALYTICAL LABORATORY INSTRUMENT MANUFACTURING",94,19632938.025
"51","MEDICAL, DENTAL, AND HOSPITAL EQUIPMENT AND SUPPLIES MERCHANT WHOLESALERS",50,19396882.17
"52","OTHER COMMUNICATIONS EQUIPMENT MANUFACTURING",65,17726872.355
"53","PUBLIC RELATIONS AGENCIES",3,17276225.19
"54","COLLEGES, UNIVERSITIES, AND PROFESSIONAL SCHOOLS",6,15988587.61
"55","LIGHT TRUCK AND UTILITY VEHICLE MANUFACTURING",17,13508833.04
"56","PET CARE (EXCEPT VETERINARY) SERVICES",94,13206069.85
"57","OPTICAL INSTRUMENT AND LENS MANUFACTURING",33,12401896.87
"58","LESSORS OF NONRESIDENTIAL BUILDINGS (EXCEPT MINIWAREHOUSES)",23,11788198.43
"59","COMPUTER AND OFFICE MACHINE REPAIR AND MAINTENANCE",32,11271723.885
"60","PROCESS, PHYSICAL DISTRIBUTION, AND LOGISTICS CONSULTING SERVICES",10,11062259.5
"61","SPORTING AND RECREATIONAL GOODS AND SUPPLIES MERCHANT WHOLESALERS",18,10432635.38
"62","OTHER MOTOR VEHICLE PARTS MANUFACTURING",3,10295806.27
"63","MIXED MODE TRANSIT SYSTEMS",1,9617760.35
"64","OTHER PROFESSIONAL EQUIPMENT AND SUPPLIES MERCHANT WHOLESALERS",21,9133719.47
"65","HIGHWAY, STREET, AND BRIDGE CONSTRUCTION",7,8692327.295
"66","TIRE MANUFACTURING (EXCEPT RETREADING)",4,8213876.4
"67","OTHER INDIVIDUAL AND FAMILY SERVICES",6,7950211.125
"68","ALL OTHER INFORMATION SERVICES",16,7714252.95333333
"69","ENVIRONMENTAL CONSULTING SERVICES",30,7701590.025
"70","AMMUNITION (EXCEPT SMALL ARMS) MANUFACTURING",7,7382267.3975
"71","MEDICAL LABORATORIES",8,7120823.83
"72","COMMUNICATION EQUIPMENT REPAIR AND MAINTENANCE",11,6747912.49
"73","HAZARDOUS WASTE TREATMENT AND DISPOSAL",19,6380662.88
"74","PHOTOGRAPHIC AND PHOTOCOPYING EQUIPMENT MANUFACTURING",243,5883410.00833334
"75","TESTING LABORATORIES",6,5880555.16666667
"76","SITE PREPARATION CONTRACTORS",5,5731578.095
"77","RESIDENTIAL REMODELERS",5,5588772.76
"78","SEPTIC TANK AND RELATED SERVICES",31,5375795.585
"79","INDUSTRIAL BUILDING CONSTRUCTION",4,5150268.20666667
"80","PETROLEUM AND PETROLEUM PRODUCTS MERCHANT WHOLESALERS (EXCEPT BULK STATIONS AND TERMINALS)",1,5e+06
"81","PLUMBING, HEATING, AND AIR-CONDITIONING CONTRACTORS",32,4893975.75
"82","ALL OTHER AMUSEMENT AND RECREATION INDUSTRIES",29,4677249.81
"83","ALL OTHER ANIMAL PRODUCTION",74,4560680
"84","TRANSLATION AND INTERPRETATION SERVICES",55,4273712.635
"85","LANDSCAPING SERVICES",27,4190605.205
"86","FOOD SERVICE CONTRACTORS",63,4143701.64
"87","SECURITY SYSTEMS SERVICES (EXCEPT LOCKSMITHS)",39,4078671.12
"88","COOKIE AND CRACKER MANUFACTURING",4,3776840.42
"89","VETERINARY SERVICES",47,3688278.645
"90","GRAPHIC DESIGN SERVICES",2,3663489.4
"91","OFFICE FURNITURE (EXCEPT WOOD) MANUFACTURING",163,3651135.425
"92","ALL OTHER LEGAL SERVICES",71,3524769.3
"93","ROOFING CONTRACTORS",10,3423094.14
"94","MEASURING AND DISPENSING PUMP MANUFACTURING",2,3240417.68
"95","ALL OTHER SPECIALTY TRADE CONTRACTORS",27,3230848.88
"96","WATER AND SEWER LINE AND RELATED STRUCTURES CONSTRUCTION",6,3218088.405
"97","",19,3200919.46333333
"98","PARKING LOTS AND GARAGES",31,3176515.25
"99","ALL OTHER MISCELLANEOUS AMBULATORY HEALTH CARE SERVICES",1,3132945.66
"100","SCHEDULED PASSENGER AIR TRANSPORTATION",1,3072718.64333333
"101","CORRECTIONAL INSTITUTIONS",21,3059253.455
"102","OTHER MEASURING AND CONTROLLING DEVICE MANUFACTURING",28,3038315.02666667
"103","ALL OTHER BUSINESS SUPPORT SERVICES",7,3031884.36
"104","FREIGHT TRANSPORTATION ARRANGEMENT",7,2958501
"105","OTHER SPECTATOR SPORTS",1,2950000
"106","CREDIT BUREAUS",2,2808500
"107","OTHER SCIENTIFIC AND TECHNICAL CONSULTING SERVICES",5,2383603.56
"108","SPORTING AND ATHLETIC GOODS MANUFACTURING",92,2337659.615
"109","SOLID WASTE COLLECTION",34,2315813.83
"110","WIRED TELECOMMUNICATIONS CARRIERS",21,2104745.08
"111","ARCHITECTURAL SERVICES",3,2082762
"112","ALL OTHER SUPPORT SERVICES",19,2040929.9
"113","COMPUTER AND COMPUTER PERIPHERAL EQUIPMENT AND SOFTWARE MERCHANT WHOLESALERS",17,2040691.445
"114","BOTTLED WATER MANUFACTURING",31,2018221.57
"115","CONSTRUCTION, MINING, AND FORESTRY MACHINERY AND EQUIPMENT RENTAL AND LEASING",2,1766752.78
"116","RESEARCH AND DEVELOPMENT IN THE SOCIAL SCIENCES AND HUMANITIES",3,1732515.835
"117","OTHER SERVICES TO BUILDINGS AND DWELLINGS",7,1678167.135
"118","OTHER COMMERCIAL AND INDUSTRIAL MACHINERY AND EQUIPMENT RENTAL AND LEASING",5,1660472.435
"119","MORTGAGE AND NONMORTGAGE LOAN BROKERS",2,1654030.51
"120","ARMORED CAR SERVICES",31,1638610.66
"121","DOG AND CAT FOOD MANUFACTURING",4,1611658.06
"122","COURIERS AND EXPRESS DELIVERY SERVICES",68,1589630.375
"123","EDUCATIONAL SUPPORT SERVICES",13,1483856.61
"124","COMPUTER TRAINING",7,1464449.87
"125","COMPUTER TERMINAL AND OTHER COMPUTER PERIPHERAL EQUIPMENT MANUFACTURING",8,1328963.255
"126","ALL OTHER INDUSTRIAL MACHINERY MANUFACTURING",4,1292830.195
"127","INTERNET SERVICE PROVIDERS",4,1287392.6
"128","PROFESSIONAL AND MANAGEMENT DEVELOPMENT TRAINING",15,1285425.98
"129","WOOD OFFICE FURNITURE MANUFACTURING",26,1263527.73
"130","PAINTING AND WALL COVERING CONTRACTORS",6,1178675.765
"131","ALL OTHER MISCELLANEOUS MANUFACTURING",21,1151101.52
"132","INDUSTRIAL TRUCK, TRACTOR, TRAILER, AND STACKER MACHINERY MANUFACTURING",22,1111571.035
"133","ALL OTHER MISCELLANEOUS SCHOOLS AND INSTRUCTION",5,1083577.255
"134","INDUSTRIAL LAUNDERERS",18,1076420.625
"135","EXTERMINATING AND PEST CONTROL SERVICES",14,1068645.54666667
"136","OTHER NONHAZARDOUS WASTE TREATMENT AND DISPOSAL",7,1032468.57
"137","NONSCHEDULED CHARTERED PASSENGER AIR TRANSPORTATION",10,996533.7
"138","ALL OTHER PUBLISHERS",3,955930.95
"139","HAZARDOUS WASTE COLLECTION",7,949101.92
"140","HARDWARE STORES",64,945476.28
"141","ELECTRONIC COMPUTER MANUFACTURING",34,936913.89
"142","HOTELS (EXCEPT CASINO HOTELS) AND MOTELS",65,897264.46
"143","MOTOR AND GENERATOR MANUFACTURING",9,879195.18
"144","TELEPHONE APPARATUS MANUFACTURING",8,872129.38
"145","INDUSTRIAL GAS MANUFACTURING",1,813065.8
"146","HARDWARE MERCHANT WHOLESALERS",48,808910.365
"147","ALL OTHER TELECOMMUNICATIONS",10,804428.67
"148","POSTAL SERVICE",2,800929.285
"149","EXPLOSIVES MANUFACTURING",3,795420
"150","BOOK, PERIODICAL, AND NEWSPAPER WHOLESALERS",2,793096
"151","OTHER BUILDING EQUIPMENT CONTRACTORS",7,786484.67
"152","TOTALIZING FLUID METER AND COUNTING DEVICE MANUFACTURING",3,774633.42
"153","PRINTING MACHINERY AND EQUIPMENT MANUFACTURING",30,767420.67
"154","OTHER LIGHTING EQUIPMENT MANUFACTURING",6,763471.23
"155","SATELLITE TELECOMMUNICATIONS",16,758102.455
"156","ALL OTHER LEATHER GOOD AND ALLIED PRODUCT MANUFACTURING",21,742194.68
"157","AUDIO AND VIDEO EQUIPMENT MANUFACTURING",16,717956.71
"158","HAND AND EDGE TOOL MANUFACTURING",46,693112.955
"159","PET AND PET SUPPLIES STORES",2,689223.5
"160","SCALE AND BALANCE MANUFACTURING (2007), SCALE AND BALANCE (EXCEPT LABORATORY) MANUFACTURING (2002)",5,681461.995
"161","OTHER FOUNDATION, STRUCTURE, AND BUILDING EXTERIOR CONTRACTORS",7,661397.92
"162","SOLID WASTE COMBUSTORS AND INCINERATORS",5,655547.575
"163","AUTOMATIC ENVIRONMENTAL CONTROL MANUFACTURING FOR RESIDENTIAL, COMMERCIAL, AND APPLIANCE USE",3,655255.53
"164","FITNESS AND RECREATIONAL SPORTS CENTERS",6,648108.13
"165","FLOORING CONTRACTORS",9,628498.17
"166","PREFABRICATED METAL BUILDING AND COMPONENT MANUFACTURING",13,613043.49
"167","GASKET, PACKING, AND SEALING DEVICE MANUFACTURING",1,588108.65
"168","PHARMACEUTICAL PREPARATION MANUFACTURING",16,559482.04
"169","ALL OTHER MISCELLANEOUS STORE RETAILERS (EXCEPT TOBACCO STORES)",4,556224.15
"170","PLASTICS PIPE AND PIPE FITTING MANUFACTURING",26,554940.81
"171","INDUSTRIAL MACHINERY AND EQUIPMENT MERCHANT WHOLESALERS",25,554600.545
"172","PHOTOGRAPHIC FILM, PAPER, PLATE, AND CHEMICAL MANUFACTURING",37,541558.735
"173","SPECIALIZED FREIGHT (EXCEPT USED GOODS) TRUCKING, LOCAL",2,537428.38
"174","OTHER JUSTICE, PUBLIC ORDER, AND SAFETY ACTIVITIES",5,498242.35
"175","MILITARY ARMORED VEHICLE, TANK, AND TANK COMPONENT MANUFACTURING",26,498120.525
"176","CONSUMER ELECTRONICS AND APPLIANCES RENTAL",1,491607.999166667
"177","ELECTRIC POWER DISTRIBUTION",4,479254.523333333
"178","MARKETING CONSULTING SERVICES",2,470892.67
"179","COMMERCIAL AND INDUSTRIAL MACHINERY AND EQUIPMENT (EXCEPT AUTOMOTIVE AND ELECTRONIC) REPAIR AND MAINTENANCE",10,465617.225
"180","CHARTER BUS INDUSTRY",2,430900
"181","INSURANCE AGENCIES AND BROKERAGES",2,412147.825
"182","CARBON PAPER AND INKED RIBBON MANUFACTURING",49,411751.35
"183","OFFICE SUPPLIES AND STATIONERY STORES",54,404044.445
"184","TRUCK TRAILER MANUFACTURING",21,395062.255
"185","BOOK PUBLISHERS",9,392048.42
"186","ALL OTHER MISCELLANEOUS WASTE MANAGEMENT SERVICES",6,390564.21
"187","ALL OTHER MISCELLANEOUS FOOD MANUFACTURING",4,390152.55
"188","POURED CONCRETE FOUNDATION AND STRUCTURE CONTRACTORS",1,383658.38
"189","COASTAL AND GREAT LAKES PASSENGER TRANSPORTATION",2,382624
"190","INSTRUMENTS AND RELATED PRODUCTS MANUFACTURING FOR MEASURING, DISPLAYING, AND CONTROLLING INDUSTRIAL PROCESS VARIABLES",3,380335.95
"191","ALL OTHER TRAVEL ARRANGEMENT AND RESERVATION SERVICES",2,374850
"192","DIRECTORY AND MAILING LIST PUBLISHERS",1,371639.5
"193","POLICE PROTECTION",2,368231
"194","OFFICE MACHINERY MANUFACTURING",8,363659.61
"195","PRIMARY BATTERY MANUFACTURING",1,360500
"196","REMEDIATION SERVICES",8,349227.805
"197","ALL OTHER LEATHER GOOD MANUFACTURING",25,346176.93
"198","NONUPHOLSTERED WOOD HOUSEHOLD FURNITURE MANUFACTURING",13,344822.4
"199","MOTORCYCLE, BICYCLE, AND PARTS MANUFACTURING",6,339363.49
"200","SPORTING GOODS STORES",28,337240.37
"201","SOAP AND OTHER DETERGENT MANUFACTURING",5,326137.325
"202","ALL OTHER TRANSIT AND GROUND PASSENGER TRANSPORTATION",4,315097.76
"203","WIRELESS TELECOMMUNICATIONS CARRIERS (EXCEPT SATELLITE)",11,314115.43
"204","HORSES AND OTHER EQUINE PRODUCTION",9,310439
"205","OTHER WASTE COLLECTION",6,308030.3
"206","ALL OTHER MISCELLANEOUS FABRICATED METAL PRODUCT MANUFACTURING",12,305205.86
"207","OFFICES OF OPTOMETRISTS",3,300625
"208","OTHER COMMUNICATION AND ENERGY WIRE MANUFACTURING",1,296505
"209","SUPPORT ACTIVITIES FOR ANIMAL PRODUCTION",9,288311.76
"210","OTHER ANIMAL FOOD MANUFACTURING",3,285103.35
"211","COLLECTION AGENCIES",1,281250
"212","MISCELLANEOUS FINANCIAL INVESTMENT ACTIVITIES",1,281250
"213","SHOWCASE, PARTITION, SHELVING, AND LOCKER MANUFACTURING",14,279913.35
"214","DRYCLEANING AND LAUNDRY SERVICES (EXCEPT COIN-OPERATED)",4,272097.91
"215","STATIONERY AND OFFICE SUPPLIES MERCHANT WHOLESALERS",37,256159.56
"216","NONRESIDENTIAL PROPERTY MANAGERS",2,255688.7
"217","TIRE AND TUBE MERCHANT WHOLESALERS",1,245100
"218","OTHER COMMERCIAL AND SERVICE INDUSTRY MACHINERY MANUFACTURING",16,242640.21
"219","SIGN MANUFACTURING",9,236039.05
"220","INTERNET PUBLISHING AND BROADCASTING AND WEB SEARCH PORTALS",4,232606.175
"221","ALL OTHER MISCELLANEOUS GENERAL PURPOSE MACHINERY MANUFACTURING",7,224785.77
"222","PESTICIDE AND OTHER AGRICULTURAL CHEMICAL MANUFACTURING",2,223376.96
"223","PETROLEUM LUBRICATING OIL AND GREASE MANUFACTURING",2,211689.38
"224","OFFICE SUPPLIES (EXCEPT PAPER) MANUFACTURING",36,211612.895
"225","DEEP SEA FREIGHT TRANSPORTATION",8,210354.25
"226","OTHER SIMILAR ORGANIZATIONS (EXCEPT BUSINESS, PROFESSIONAL, LABOR, AND POLITICAL ORGANIZATIONS)",1,210000
"227","CABLE AND OTHER SUBSCRIPTION PROGRAMMING",9,206867.14
"228","PORT AND HARBOR OPERATIONS",4,205380.2
"229","HARDWARE MANUFACTURING",13,205298.57
"230","PERIODICAL PUBLISHERS",6,204808.63
"231","SURVEYING AND MAPPING (EXCEPT GEOPHYSICAL) SERVICES",2,196295.29
"232","NATIONAL SECURITY",1,190000
"233","LESSORS OF MINIWAREHOUSES AND SELF-STORAGE UNITS",2,186828.75
"234","OTHER MISCELLANEOUS DURABLE GOODS MERCHANT WHOLESALERS",6,183947.31
"235","HAY FARMING",5,182582.58
"236","CROP HARVESTING, PRIMARILY BY MACHINE",1,177670
"237","ALL OTHER MISCELLANEOUS ELECTRICAL EQUIPMENT AND COMPONENT MANUFACTURING",4,177009.48
"238","SPECIALIZED FREIGHT (EXCEPT USED GOODS) TRUCKING, LONG-DISTANCE",2,176190.7
"239","OFFICES OF LAWYERS",38,172993.37
"240","STRUCTURAL STEEL AND PRECAST CONCRETE CONTRACTORS",3,172441.13
"241","INLAND WATER FREIGHT TRANSPORTATION",2,172255.2
"242","OFFICE EQUIPMENT MERCHANT WHOLESALERS",10,171858.83
"243","OTHER BUILDING FINISHING CONTRACTORS",2,167679.88
"244","GEOPHYSICAL SURVEYING AND MAPPING SERVICES",1,165000
"245","SERVICE ESTABLISHMENT EQUIPMENT AND SUPPLIES MERCHANT WHOLESALERS",3,164351.23
"246","BLIND AND SHADE MANUFACTURING",2,162618.75
"247","OTHER TECHNICAL AND TRADE SCHOOLS",1,159500
"248","OTHER CONSTRUCTION MATERIAL MERCHANT WHOLESALERS",2,156604.17
"249","POWER AND COMMUNICATION LINE AND RELATED STRUCTURES CONSTRUCTION",2,153534.18
"250","FURNITURE MERCHANT WHOLESALERS",3,151606.29
"251","BRICK, STONE, AND RELATED CONSTRUCTION MATERIAL MERCHANT WHOLESALERS",1,150694.32
"252","FULL-SERVICE RESTAURANTS",1,150000
"253","PLASTICS MATERIAL AND RESIN MANUFACTURING",1,150000
"254","OTHER INDUSTRIAL MACHINERY MANUFACTURING",1,149224.34
"255","COMMERCIAL, INDUSTRIAL, AND INSTITUTIONAL ELECTRIC LIGHTING FIXTURE MANUFACTURING",2,139934.35
"256","PUMP AND PUMPING EQUIPMENT MANUFACTURING",8,137630.5
"257","CONSUMER ELECTRONICS REPAIR AND MAINTENANCE",2,137365.4
"258","OTHER GENERAL GOVERNMENT SUPPORT",5,136597.7
"259","PREFABRICATED WOOD BUILDING MANUFACTURING",3,135683.35
"260","POWER, DISTRIBUTION, AND SPECIALTY TRANSFORMER MANUFACTURING",1,129817.4
"261","NEW SINGLE-FAMILY HOUSING CONSTRUCTION (EXCEPT FOR-SALE BUILDERS)",1,129728
"262","ALL OTHER GRAIN FARMING",2,127690.35
"263","CONSTRUCTION MACHINERY MANUFACTURING",4,127234.44
"264","OVERHEAD TRAVELING CRANE, HOIST, AND MONORAIL SYSTEM MANUFACTURING",3,127184
"265","GENERAL FREIGHT TRUCKING, LOCAL",2,124286.5
"266","OTHER AIRPORT OPERATIONS",2,120740
"267","INSTRUMENT MANUFACTURING FOR MEASURING AND TESTING ELECTRICITY AND ELECTRICAL SIGNALS",8,120542.5
"268","ALL OTHER AUTOMOTIVE REPAIR AND MAINTENANCE",4,120081.52
"269","COURT REPORTING AND STENOTYPE SERVICES",20,118125.68
"270","TRUCK, UTILITY TRAILER, AND RV (RECREATIONAL VEHICLE) RENTAL AND LEASING",8,114158.78
"271","INDUSTRIAL AND PERSONAL SERVICE PAPER MERCHANT WHOLESALERS",11,114142
"272","OTHER MAJOR HOUSEHOLD APPLIANCE MANUFACTURING",1,112100
"273","INDUSTRIAL SUPPLIES MERCHANT WHOLESALERS",5,106883.2
"274","PROFESSIONAL ORGANIZATIONS",3,106326.73
"275","LESSORS OF RESIDENTIAL BUILDINGS AND DWELLINGS",1,104160
"276","COMPUTER STORAGE DEVICE MANUFACTURING",12,100202.25
"277","FARM MACHINERY AND EQUIPMENT MANUFACTURING",4,99467.1
"278","RUBBER AND PLASTICS FOOTWEAR MANUFACTURING",12,99267.98
"279","OTHER GROCERY AND RELATED PRODUCTS MERCHANT WHOLESALERS",1,96172
"280","TURBINE AND TURBINE GENERATOR SET UNITS MANUFACTURING",1,92669.76
"281","BEEF CATTLE RANCHING AND FARMING",1,92250
"282","MOTORCYCLE, ATV, AND ALL OTHER MOTOR VEHICLE DEALERS",3,87279.06
"283","SOLID WASTE LANDFILL",1,85924.07
"284","NURSERY, GARDEN CENTER, AND FARM SUPPLY STORES",1,80718.92
"285","AUTOMOTIVE PARTS AND ACCESSORIES STORES",2,79343.95
"286","REGULATION AND ADMINISTRATION OF COMMUNICATIONS, ELECTRIC, GAS, AND OTHER UTILITIES",4,77587
"287","SURGICAL AND MEDICAL INSTRUMENT MANUFACTURING",8,76654.25
"288","ELECTROMEDICAL AND ELECTROTHERAPEUTIC APPARATUS MANUFACTURING",3,76005.25
"289","CAR WASHES",1,76000
"290","ELEVATOR AND MOVING STAIRWAY MANUFACTURING",1,65316.5
"291","OTHER METAL CONTAINER MANUFACTURING",8,64507.025
"292","QUICK PRINTING",9,62648.15
"293","OTHER FINANCIAL VEHICLES",1,60255
"294","LABORATORY APPARATUS AND FURNITURE MANUFACTURING",7,60060.75
"295","ALL OTHER TRANSPORTATION EQUIPMENT MANUFACTURING",3,56913.2
"296","ALL OTHER GENERAL MERCHANDISE STORES",1,56630
"297","ELECTRICAL APPARATUS AND EQUIPMENT, WIRING SUPPLIES, AND RELATED EQUIPMENT MERCHANT  WHOLESALERS",4,56289.2
"298","INSTITUTIONAL FURNITURE MANUFACTURING",5,54754.35
"299","OTHER COMMUNITY HOUSING SERVICES",1,54000
"300","CUTTING TOOL AND MACHINE TOOL ACCESSORY MANUFACTURING",3,53855.74
"301","COMMERCIAL BANKING",1,52398
"302","MATERIALS RECOVERY FACILITIES",2,51815.305
"303","OTHER CONCRETE PRODUCT MANUFACTURING",1,51551.5
"304","RECYCLABLE MATERIAL MERCHANT WHOLESALERS",1,51288
"305","STORAGE BATTERY MANUFACTURING",3,51230.4
"306","ALL OTHER MISCELLANEOUS CHEMICAL PRODUCT AND PREPARATION MANUFACTURING",7,51006.1
"307","PAPER (EXCEPT NEWSPRINT) MILLS",10,50118.04
"308","COURTS",1,50000
"309","WOOD CONTAINER AND PALLET MANUFACTURING",2,49986
"310","BLANK MAGNETIC AND OPTICAL RECORDING MEDIA MANUFACTURING",7,49126.7
"311","METAL WINDOW AND DOOR MANUFACTURING",1,48348
"312","MARINAS",1,47715
"313","APPLIANCE REPAIR AND MAINTENANCE",3,47076.57
"314","PHOTOGRAPHIC EQUIPMENT AND SUPPLIES MERCHANT WHOLESALERS",3,46888.48
"315","AUTOMOBILE DRIVING SCHOOLS",1,41749
"316","TELECOMMUNICATIONS RESELLERS",3,41679.94
"317","COMMERCIAL PRINTING (EXCEPT SCREEN AND BOOKS)",6,39050.93
"318","OTHER DIRECT SELLING ESTABLISHMENTS",2,38439.15
"319","ADMINISTRATION OF AIR AND WATER RESOURCE AND SOLID WASTE MANAGEMENT PROGRAMS",1,37500
"320","MACHINE TOOL (METAL CUTTING TYPES) MANUFACTURING",3,35970
"321","COMMERCIAL SCREEN PRINTING",4,35966.18
"322","BUSINESS ASSOCIATIONS",6,35482.5
"323","IRON AND STEEL PIPE AND TUBE MANUFACTURING FROM PURCHASED STEEL",2,35199.95
"324","INLAND WATER PASSENGER TRANSPORTATION",1,35000
"325","ALL OTHER MISCELLANEOUS TEXTILE PRODUCT MILLS",4,34704.24
"326","DRYWALL AND INSULATION CONTRACTORS",2,34533.17
"327","ICE MANUFACTURING",3,33594.885
"328","BOOKS PRINTING",1,33143.08
"329","BROOM, BRUSH, AND MOP MANUFACTURING",6,33031.04
"330","BUILDING INSPECTION SERVICES",1,33000
"331","ADVERTISING MATERIAL DISTRIBUTION SERVICES",1,31600
"332","AGENTS AND MANAGERS FOR ARTISTS, ATHLETES, ENTERTAINERS, AND OTHER PUBLIC FIGURES",1,31000
"333","PERISHABLE PREPARED FOOD MANUFACTURING",1,29574.36
"334","GENERAL AUTOMOTIVE REPAIR",2,29020.5
"335","GIFT, NOVELTY, AND SOUVENIR STORES",1,28397.99
"336","AIR AND GAS COMPRESSOR MANUFACTURING",3,28015.98
"337","MANUFACTURED HOME (MOBILE HOME) MANUFACTURING",2,27277.48
"338","ELECTRIC BULK POWER TRANSMISSION AND CONTROL",1,26164.56
"339","LINEN SUPPLY",1,25399.3
"340","ALL OTHER PLASTICS PRODUCT MANUFACTURING",5,25346.48
"341","SUPPORT ACTIVITIES FOR OIL AND GAS OPERATIONS",1,25336.63
"342","HOSIERY AND SOCK MILLS",3,25165.32
"343","NEWS SYNDICATES",2,23127.5
"344","TEXTILE BAG AND CANVAS MILLS",3,22726.34
"345","GLASS AND GLAZING CONTRACTORS",1,21944.51
"346","OTHER ELECTRONIC PARTS AND EQUIPMENT MERCHANT WHOLESALERS",1,21398.25
"347","OTHER ENGINE EQUIPMENT MANUFACTURING",3,21039.56
"348","HOUSEHOLD FURNITURE (EXCEPT WOOD AND METAL) MANUFACTURING",1,20993.4
"349","COIN-OPERATED LAUNDRIES AND DRYCLEANERS",1,20888.4
"350","AIR-CONDITIONING AND WARM AIR HEATING EQUIPMENT AND COMMERCIAL AND INDUSTRIAL REFRIGERATION EQUIPMENT MANUFACTURING",2,20626.83
"351","LIBRARIES AND ARCHIVES",1,20445
"352","ORNAMENTAL AND ARCHITECTURAL METAL WORK MANUFACTURING",1,20300.99
"353","OTHER MILLWORK (INCLUDING FLOORING)",1,20175.61
"354","ALL OTHER CONSUMER GOODS RENTAL",1,18540
"355","CONVENTION AND TRADE SHOW ORGANIZERS",2,18279.35
"356","MEN'S CLOTHING STORES",2,17899.9
"357","FURNITURE STORES",2,17381.52
"358","PLASTICS BOTTLE MANUFACTURING",1,17221
"359","FOOD PRODUCT MACHINERY MANUFACTURING",3,17142.42
"360","SWITCHGEAR AND SWITCHBOARD APPARATUS MANUFACTURING",1,16782.5
"361","ALL OTHER HOME FURNISHINGS STORES",1,16567.57
"362","CURRENT-CARRYING WIRING DEVICE MANUFACTURING",3,16070.95
"363","UPHOLSTERED HOUSEHOLD FURNITURE MANUFACTURING",1,15300.56
"364","AUTOMOTIVE BODY, PAINT, AND INTERIOR REPAIR AND MAINTENANCE",3,15197.11
"365","GLOVE AND MITTEN MANUFACTURING",3,15189.35
"366","OTHER CUT AND SEW APPAREL MANUFACTURING",1,15000
"367","FIBER OPTIC CABLE MANUFACTURING",1,14949
"368","ALL OTHER CUT AND SEW APPAREL MANUFACTURING",3,14873
"369","MARKING DEVICE MANUFACTURING",2,14822.5
"370","MEN'S FOOTWEAR (EXCEPT ATHLETIC) MANUFACTURING",2,14594.88
"371","BOOK, PERIODICAL, AND NEWSPAPER MERCHANT WHOLESALERS",1,14583.335
"372","SOIL PREPARATION, PLANTING, AND CULTIVATING",1,14147.25
"373","SHEET METAL WORK MANUFACTURING",1,13851
"374","RADIO NETWORKS",1,13750
"375","MEN'S AND BOYS' CUT AND SEW OTHER OUTERWEAR MANUFACTURING",2,13357.63
"376","GASOLINE STATIONS WITH CONVENIENCE STORES",1,13118.01
"377","OTHER BUILDING MATERIAL DEALERS",1,12875
"378","DIRECT LIFE INSURANCE CARRIERS",1,12768.72
"379","GENERAL MEDICAL AND SURGICAL HOSPITALS",1,12400
"380","VITREOUS CHINA PLUMBING FIXTURE AND CHINA AND EARTHENWARE BATHROOM ACCESSORIES MANUFACTURING",2,11605.15
"381","CONSTRUCTION SAND AND GRAVEL MINING",2,11536
"382","MUSEUMS",1,11000
"383","NAVIGATIONAL SERVICES TO SHIPPING",1,10758
"384","SMALL ELECTRICAL APPLIANCE MANUFACTURING",1,10607.22
"385","LESSORS OF OTHER REAL ESTATE PROPERTY",1,10000
"386","FRAMING CONTRACTORS",1,9762.6
"387","ALL OTHER CONVERTED PAPER PRODUCT MANUFACTURING",1,9677.5
"388","ALL OTHER MISCELLANEOUS WOOD PRODUCT MANUFACTURING",1,9300.03
"389","OTHER WAREHOUSING AND STORAGE",1,9270
"390","JEWELRY, WATCH, PRECIOUS STONE, AND PRECIOUS METAL MERCHANT WHOLESALERS",2,9001.27
"391","RECREATIONAL GOODS RENTAL",1,9000
"392","SCHEDULED FREIGHT AIR TRANSPORTATION",2,8610.7
"393","RUBBER AND PLASTICS HOSES AND BELTING MANUFACTURING",1,8503.68
"394","RADIO, TELEVISION, AND OTHER ELECTRONICS STORES",1,8311.77
"395","ELECTRONIC SHOPPING",1,8003.27
"396","FUEL DEALERS",2,7889.03
"397","WATER SUPPLY AND IRRIGATION SYSTEMS",1,7655
"398","GLASS PRODUCT MANUFACTURING MADE OF PURCHASED GLASS",1,7528.33
"399","SOLAR ELECTRIC POWER GENERATION",1,7300
"400","PRINTED CIRCUIT ASSEMBLY (ELECTRONIC ASSEMBLY) MANUFACTURING",1,6968.36
"401","MOTOR VEHICLE TRANSMISSION AND POWER TRAIN PARTS MANUFACTURING",1,6895
"402","CANVAS AND RELATED PRODUCT MILLS",1,6578.23
"403","PEN AND MECHANICAL PENCIL MANUFACTURING",1,6568.22
"404","MEN'S AND BOYS' CUT AND SEW APPAREL CONTRACTORS",1,6126.98
"405","POWER-DRIVEN HANDTOOL MANUFACTURING",1,5990
"406","OTHER AUTOMOTIVE MECHANICAL AND ELECTRICAL REPAIR AND MAINTENANCE",1,5882.3
"407","POTTERY, CERAMICS, AND PLUMBING FIXTURE MANUFACTURING",1,5519.28
"408","HOME AND GARDEN EQUIPMENT REPAIR AND MAINTENANCE",1,5450
"409","DENTAL EQUIPMENT AND SUPPLIES MANUFACTURING",1,5325
"410","OTHER CLOTHING STORES",1,5320.38
"411","ALL OTHER PERSONAL SERVICES",1,5000
"412","DIE-CUT PAPER AND PAPERBOARD OFFICE SUPPLIES MANUFACTURING",1,4712.64
"413","SPORTS TEAMS AND CLUBS",1,4500
"414","WOMEN'S AND GIRLS' CUT AND SEW SUIT, COAT, TAILORED JACKET, AND SKIRT MANUFACTURING",1,4350
"415","PASSENGER CAR RENTAL",1,4227.23
"416","AUTOMOBILE AND OTHER MOTOR VEHICLE MERCHANT WHOLESALERS",1,4087.42
"417","MOTORCYCLE DEALERS",1,4023.96
"418","MOTOR VEHICLE SUPPLIES AND NEW PARTS MERCHANT WHOLESALERS",1,3950
"419","SEMICONDUCTOR AND RELATED DEVICE MANUFACTURING",1,3939.75
"420","FLUID POWER PUMP AND MOTOR MANUFACTURING",1,3631
"421","ELEMENTARY AND SECONDARY SCHOOLS",1,3611.3
"422","OFFICES OF REAL ESTATE AGENTS AND BROKERS",1,3600
"423","LOCKSMITHS",1,3535.65
"424","OTHER MOTION PICTURE AND VIDEO INDUSTRIES",1,1500
"425","OTHER COMMERCIAL EQUIPMENT MERCHANT WHOLESALERS",1,0
"426","OTHER GASOLINE STATIONS",1,0
