H <hrod17@clintonemail.com >
Friday, May 6, 20111:53 AM
'sullivanjj@state.gov'
Fw: H: UBL, AQ & Libya. Sid
hrc memo bin laden, aq & libya.docx
More to pass on--disturbing, if true.
_ -----
From
Sent: Monday, May 02, 2011 09:12 AM
To: H
Subject: H: UBL, AQ & Libya. Sid
May 2, 2011
For Hillary
